{
  "result": {
    "groups": {
      "1": "Tracker",
      "2": "Tesla",
      "3": "Mobile",
      "4": "Other"
    },
    "byGroup": {
      "1": [
        1289937,
        904489,
        1298985
      ],
      "2": [
        1283669
      ],
      "3": [
        1289937,
        904489,
        1298985
      ],
      "4": [
      ]
    },
    "devices": {
      "904489": {
        "id": 904489,
        "name": "G37",
        "driver": "Alex",
        "trip": {
          "begin": 1609460166,
          "end": 1609460532,
          "active": false,
          "duration": 366,
          "mileage": 2.27,
          "co2": 750,
          "score": 90
        }
      },
      "1283669": {
        "id": 1283669,
        "name": "Tesla 001",
        "driver": "-",
        "trip": {
          "begin": 1612516700,
          "end": 1612517148,
          "active": false,
          "duration": 448,
          "mileage": 10.21,
          "co2": 430,
          "score": 76
        }
      },
      "1289937": {
        "id": 1289937,
        "name": "fmb110",
        "driver": "Alex",
        "trip": {
          "begin": 1612516772,
          "end": 1612517123,
          "active": false,
          "duration": 351,
          "mileage": 1.14,
          "co2": 800,
          "score": 100
        }
      },
      "1298985": {
        "id": 1298985,
        "name": "FMB110 poza",
        "driver": "Tom",
        "trip": {
          "begin": 1611681325,
          "end": 1611681355,
          "active": true,
          "duration": 30,
          "mileage": 0,
          "co2": 1100,
          "score": 100
        }
      }
    }
  }
}
