<?xml version="1.0" encoding="UTF-8"?>
<svg width="16px" height="16px" viewBox="0 0 16 16" version="1.1" xmlns="http://www.w3.org/2000/svg" xmlns:xlink="http://www.w3.org/1999/xlink">
    <title>co2</title>
    <g id="co2" stroke="none" stroke-width="1" fill="none" fill-rule="evenodd">
        <polygon id="Path" points="0 0 16 0 16 16 0 16"></polygon>
        <text id="🌳" font-family="AppleColorEmoji, Apple Color Emoji" font-size="11" font-weight="normal" line-spacing="15" fill="#FFFFFF">
            <tspan x="1" y="14">🌳</tspan>
        </text>
    </g>
</svg>